microProcessador/lab4_top_level_testbench.vcd
$date
  Thu Oct 20 17:27:52 2022
$end
$version
  GHDL v0
$end
$timescale
  1 fs
$end
$scope module standard $end
$upscope $end
$scope module textio $end
$upscope $end
$scope module std_logic_1164 $end
$upscope $end
$scope module numeric_std $end
$upscope $end
$scope module lab4_top_level_testbench $end
$var reg 1 ! clk $end
$var reg 1 " reset $end
$var reg 1 # finish $end
$var reg 20 $ data_out_top_level[19:0] $end
$scope module uut $end
$var reg 1 % clk $end
$var reg 1 & reset $end
$var reg 20 ' data_out_top_level[19:0] $end
$var reg 20 ( data_out_rom_sig[19:0] $end
$var reg 4 ) opcode_sig[3:0] $end
$var reg 16 * data_out_adress_sig[15:0] $end
$var reg 16 + data_out_count_one_sig[15:0] $end
$var reg 16 , output_mux_pc_sig[15:0] $end
$var reg 16 - data_out_pc_sig[15:0] $end
$var reg 2 . cu_output_sig[1:0] $end
$var reg 1 / output_state_sig $end
$var reg 1 0 read_from_rom $end
$scope module pc $end
$var reg 16 1 data_in[15:0] $end
$var reg 1 2 clk $end
$var reg 1 3 write_en $end
$var reg 1 4 reset $end
$var reg 16 5 data_out[15:0] $end
$var reg 16 6 data_sig[15:0] $end
$upscope $end
$scope module read_only_mem $end
$var reg 1 7 clk $end
$var reg 16 8 address[15:0] $end
$var reg 20 9 data_out[19:0] $end
$upscope $end
$scope module cu $end
$var reg 4 : opcode[3:0] $end
$var reg 2 ; cu_output[1:0] $end
$upscope $end
$scope module state_m $end
$var reg 1 < clk $end
$var reg 1 = reset $end
$var reg 1 > output $end
$var reg 1 ? state $end
$upscope $end
$upscope $end
$upscope $end
$enddefinitions $end
#0
0!
1"
U#
bUUUUUUUUUUUUUUUUUUUU $
0%
1&
bUUUUUUUUUUUUUUUUUUUU '
bUUUUUUUUUUUUUUUUUUUU (
bUUUU )
bUUUUUUUUUUUUUUUU *
b0000000000000001 +
b0000000000000001 ,
b0000000000000000 -
b00 .
0/
00
b0000000000000001 1
02
03
14
b0000000000000000 5
b0000000000000000 6
07
b0000000000000000 8
bUUUUUUUUUUUUUUUUUUUU 9
bUUUU :
b00 ;
0<
1=
0>
0?
#25000000
1!
0"
b00001111000011011110 $
1%
0&
b00001111000011011110 '
b00001111000011011110 (
b0000 )
b1111000011011110 *
1/
00
12
13
04
17
b00001111000011011110 9
b0000 :
0<
0=
1>
1?
#50000000
0!
0%
02
07
#75000000
1!
1%
b0000000000000010 +
b0000000000000010 ,
b0000000000000001 -
b0000000000000010 1
12
b0000000000000001 5
b0000000000000001 6
17
b0000000000000001 8
#100000000
0!
0%
02
07
#125000000
1!
b00001111000011110000 $
1%
b00001111000011110000 '
b00001111000011110000 (
b1111000011110000 *
b0000000000000011 +
b0000000000000011 ,
b0000000000000010 -
b0000000000000011 1
12
b0000000000000010 5
b0000000000000010 6
17
b0000000000000010 8
b00001111000011110000 9
#150000000
0!
0%
02
07
#175000000
1!
b00001011000111111110 $
1%
b00001011000111111110 '
b00001011000111111110 (
b1011000111111110 *
b0000000000000100 +
b0000000000000100 ,
b0000000000000011 -
b0000000000000100 1
12
b0000000000000011 5
b0000000000000011 6
17
b0000000000000011 8
b00001011000111111110 9
#200000000
0!
0%
02
07
#225000000
1!
b00000101000011001010 $
1%
b00000101000011001010 '
b00000101000011001010 (
b0101000011001010 *
b0000000000000101 +
b0000000000000101 ,
b0000000000000100 -
b0000000000000101 1
12
b0000000000000100 5
b0000000000000100 6
17
b0000000000000100 8
b00000101000011001010 9
#250000000
0!
0%
02
07
#275000000
1!
b11110000000000000000 $
1%
b11110000000000000000 '
b11110000000000000000 (
b1111 )
b0000000000000000 *
b0000000000000110 +
b0000000000000000 ,
b0000000000000101 -
b01 .
b0000000000000000 1
12
b0000000000000101 5
b0000000000000101 6
17
b0000000000000101 8
b11110000000000000000 9
b1111 :
b01 ;
#300000000
0!
0%
02
07
#325000000
1!
b00001111111111111111 $
1%
b00001111111111111111 '
b00001111111111111111 (
b0000 )
b1111111111111111 *
b0000000000000001 +
b0000000000000001 ,
b0000000000000000 -
b00 .
b0000000000000001 1
12
b0000000000000000 5
b0000000000000000 6
17
b0000000000000000 8
b00001111111111111111 9
b0000 :
b00 ;
#350000000
0!
0%
02
07
#375000000
1!
b00001111000011011110 $
1%
b00001111000011011110 '
b00001111000011011110 (
b1111000011011110 *
b0000000000000010 +
b0000000000000010 ,
b0000000000000001 -
b0000000000000010 1
12
b0000000000000001 5
b0000000000000001 6
17
b0000000000000001 8
b00001111000011011110 9
#400000000
0!
0%
02
07
#425000000
1!
b00001111000011110000 $
1%
b00001111000011110000 '
b00001111000011110000 (
b1111000011110000 *
b0000000000000011 +
b0000000000000011 ,
b0000000000000010 -
b0000000000000011 1
12
b0000000000000010 5
b0000000000000010 6
17
b0000000000000010 8
b00001111000011110000 9
#450000000
0!
0%
02
07
#475000000
1!
b00001011000111111110 $
1%
b00001011000111111110 '
b00001011000111111110 (
b1011000111111110 *
b0000000000000100 +
b0000000000000100 ,
b0000000000000011 -
b0000000000000100 1
12
b0000000000000011 5
b0000000000000011 6
17
b0000000000000011 8
b00001011000111111110 9
#500000000
0!
0%
02
07
#525000000
1!
b00000101000011001010 $
1%
b00000101000011001010 '
b00000101000011001010 (
b0101000011001010 *
b0000000000000101 +
b0000000000000101 ,
b0000000000000100 -
b0000000000000101 1
12
b0000000000000100 5
b0000000000000100 6
17
b0000000000000100 8
b00000101000011001010 9
#550000000
0!
0%
02
07
#575000000
1!
b11110000000000000000 $
1%
b11110000000000000000 '
b11110000000000000000 (
b1111 )
b0000000000000000 *
b0000000000000110 +
b0000000000000000 ,
b0000000000000101 -
b01 .
b0000000000000000 1
12
b0000000000000101 5
b0000000000000101 6
17
b0000000000000101 8
b11110000000000000000 9
b1111 :
b01 ;
#600000000
0!
0%
02
07
#625000000
1!
b00001111111111111111 $
1%
b00001111111111111111 '
b00001111111111111111 (
b0000 )
b1111111111111111 *
b0000000000000001 +
b0000000000000001 ,
b0000000000000000 -
b00 .
b0000000000000001 1
12
b0000000000000000 5
b0000000000000000 6
17
b0000000000000000 8
b00001111111111111111 9
b0000 :
b00 ;
#650000000
0!
0%
02
07
#675000000
1!
b00001111000011011110 $
1%
b00001111000011011110 '
b00001111000011011110 (
b1111000011011110 *
b0000000000000010 +
b0000000000000010 ,
b0000000000000001 -
b0000000000000010 1
12
b0000000000000001 5
b0000000000000001 6
17
b0000000000000001 8
b00001111000011011110 9
#700000000
0!
0%
02
07
#725000000
1!
b00001111000011110000 $
1%
b00001111000011110000 '
b00001111000011110000 (
b1111000011110000 *
b0000000000000011 +
b0000000000000011 ,
b0000000000000010 -
b0000000000000011 1
12
b0000000000000010 5
b0000000000000010 6
17
b0000000000000010 8
b00001111000011110000 9
#750000000
0!
0%
02
07
#775000000
1!
b00001011000111111110 $
1%
b00001011000111111110 '
b00001011000111111110 (
b1011000111111110 *
b0000000000000100 +
b0000000000000100 ,
b0000000000000011 -
b0000000000000100 1
12
b0000000000000011 5
b0000000000000011 6
17
b0000000000000011 8
b00001011000111111110 9
#800000000
0!
0%
02
07
#825000000
1!
b00000101000011001010 $
1%
b00000101000011001010 '
b00000101000011001010 (
b0101000011001010 *
b0000000000000101 +
b0000000000000101 ,
b0000000000000100 -
b0000000000000101 1
12
b0000000000000100 5
b0000000000000100 6
17
b0000000000000100 8
b00000101000011001010 9
#850000000
0!
0%
02
07
#875000000
1!
b11110000000000000000 $
1%
b11110000000000000000 '
b11110000000000000000 (
b1111 )
b0000000000000000 *
b0000000000000110 +
b0000000000000000 ,
b0000000000000101 -
b01 .
b0000000000000000 1
12
b0000000000000101 5
b0000000000000101 6
17
b0000000000000101 8
b11110000000000000000 9
b1111 :
b01 ;
#900000000
0!
0%
02
07
#925000000
1!
b00001111111111111111 $
1%
b00001111111111111111 '
b00001111111111111111 (
b0000 )
b1111111111111111 *
b0000000000000001 +
b0000000000000001 ,
b0000000000000000 -
b00 .
b0000000000000001 1
12
b0000000000000000 5
b0000000000000000 6
17
b0000000000000000 8
b00001111111111111111 9
b0000 :
b00 ;
#950000000
0!
0%
02
07
#975000000
1!
b00001111000011011110 $
1%
b00001111000011011110 '
b00001111000011011110 (
b1111000011011110 *
b0000000000000010 +
b0000000000000010 ,
b0000000000000001 -
b0000000000000010 1
12
b0000000000000001 5
b0000000000000001 6
17
b0000000000000001 8
b00001111000011011110 9
#1000000000
0!
1#
0%
02
07
#1025000000
1!
b00001111000011110000 $
1%
b00001111000011110000 '
b00001111000011110000 (
b1111000011110000 *
b0000000000000011 +
b0000000000000011 ,
b0000000000000010 -
b0000000000000011 1
12
b0000000000000010 5
b0000000000000010 6
17
b0000000000000010 8
b00001111000011110000 9
