microProcessador/rom_testbench.vcd
$date
  Wed Oct 19 22:22:15 2022
$end
$version
  GHDL v0
$end
$timescale
  1 fs
$end
$scope module standard $end
$upscope $end
$scope module textio $end
$upscope $end
$scope module std_logic_1164 $end
$upscope $end
$scope module numeric_std $end
$upscope $end
$scope module rom_testbench $end
$var reg 1 ! clk $end
$var reg 16 " address[15:0] $end
$var reg 16 # data_out[15:0] $end
$var reg 1 $ finish $end
$scope module uut $end
$var reg 1 % clk $end
$var reg 16 & address[15:0] $end
$var reg 16 ' data_out[15:0] $end
$upscope $end
$upscope $end
$enddefinitions $end
#0
0!
bUUUUUUUUUUUUUUUU "
bUUUUUUUUUUUUUUUU #
0$
0%
bUUUUUUUUUUUUUUUU &
bUUUUUUUUUUUUUUUU '
#25000000
1!
b0101010101010101 #
1%
b0101010101010101 '
#50000000
0!
0%
#75000000
1!
1%
#100000000
0!
b0000000000000000 "
0%
b0000000000000000 &
#125000000
1!
1%
#150000000
0!
0%
#175000000
1!
1%
#200000000
0!
b0000000000000001 "
0%
b0000000000000001 &
#225000000
1!
b1010101010101010 #
1%
b1010101010101010 '
#250000000
0!
0%
#275000000
1!
1%
#300000000
0!
b0000000000000010 "
0%
b0000000000000010 &
#325000000
1!
b1100110011001100 #
1%
b1100110011001100 '
#350000000
0!
0%
#375000000
1!
1%
#400000000
0!
b0000000000000011 "
0%
b0000000000000011 &
#425000000
1!
b0011001100110011 #
1%
b0011001100110011 '
#450000000
0!
0%
#475000000
1!
1%
#500000000
0!
b0000000000001111 "
0%
b0000000000001111 &
#525000000
1!
b0000000000000000 #
1%
b0000000000000000 '
#550000000
0!
0%
#575000000
1!
1%
#600000000
0!
b0000000000101111 "
0%
b0000000000101111 &
#625000000
1!
1%
#650000000
0!
0%
#675000000
1!
1%
#700000000
0!
0%
#725000000
1!
1%
#750000000
0!
0%
#775000000
1!
1%
#800000000
0!
0%
#825000000
1!
1%
#850000000
0!
0%
#875000000
1!
1%
#900000000
0!
0%
#925000000
1!
1%
#950000000
0!
0%
#975000000
1!
1%
#1000000000
0!
1$
0%
